chap.1 pattern detection thresholds
…
PS = PatchStat(pr2) # calculates statistics for every patches
CS = ClassStat(rc) # calculates statistics for the whole vegetation class

We now have patch and class stats for our data

as.tibble(PS)

## Warning: `as.tibble()` is deprecated, use `as_tibble()` (but mind the new semantics).
## This warning is displayed once per session.

## # A tibble: 271 x 12
##    patchID n.cell n.core.cell n.edges.perimet~ n.edges.internal  area core.area
##      <int>  <int>       <int>            <int>            <int> <dbl>     <dbl>
##  1       1     39           3               40              116    39         3
##  2       2    463         286              194             1658   463       286
##  3       3    271         139              136              948   271       139
##  4       4     26           0               40               64    26         0
##  5       5    157          41              132              496   157        41
##  6       6     45           2               54              126    45         2
##  7       7     35           1               46               94    35         1
##  8       8    106          29               90              334   106        29
##  9       9    502         332              188             1820   502       332
## 10      10    763         462              318             2734   763       462
## # ... with 261 more rows, and 5 more variables: perimeter <dbl>,
## #   perim.area.ratio <dbl>, shape.index <dbl>, frac.dim.index <dbl>,
## #   core.area.index <dbl>
